%YAML 1.1
%TAG !u! tag:unity3d.com,2011:
--- !u!114 &11400000
MonoBehaviour:
  m_ObjectHideFlags: 0
  m_PrefabParentObject: {fileID: 0}
  m_PrefabInternal: {fileID: 0}
  m_GameObject: {fileID: 0}
  m_Enabled: 1
  m_EditorHideFlags: 0
  m_Script: {fileID: 11500000, guid: 568e798afe2ce49e0af2b68267945d2e, type: 3}
  m_Name: TutorialMessages
  m_EditorClassIdentifier: 
  Texts:
  - "GordRush\u306E\u4E16\u754C\u3078\u3088\u3046\u3053\u305D\n\u3053\u306E\u30B2\u30FC\u30E0\u306F4\u4EBA\u5BFE\u6226\u30A2\u30AF\u30B7\u30E7\u30F3\u30B2\u30FC\u30E0\u3067\u3059"
  - "\u307E\u305A\u306F\u64CD\u4F5C\u65B9\u6CD5\u3092\u5B66\u3073\u307E\u3057\u3087\u3046"
  - "[TASK]\n\u5DE6\u30B9\u30C6\u30A3\u30C3\u30AF<sprite name=\"Stick L\">\u3067\n\u30AD\u30E3\u30E9\u30AF\u30BF\u30FC\u3092\u52D5\u304B\u3059\u3053\u3068\u304C\u3067\u304D\u307E\u3059\n\u77E2\u5370\u304C\u793A\u3059\u5834\u6240\u307E\u3067\u6B69\u3044\u3066\u307F\u307E\u3057\u3087\u3046"
  - "\u305D\u306E\u8ABF\u5B50\u3067\u3059\uFF01"
  - "\u6B21\u306F\u30B3\u30A4\u30F3\u3092\u904B\u3093\u3067\u307F\u307E\u3057\u3087\u3046"
  - "[TASK]\n<sprite name=\"Button 3\">\u30DC\u30BF\u30F3\u3067\u30B3\u30A4\u30F3\u3092\u3064\u304B\u3080/\u306F\u306A\u3059\n\u30B3\u30A4\u30F3\u3092\u81EA\u5206\u306E\u9663\u5730\u306B\u904B\u3093\u3067\u307F\u3088\u3046\n\u77E2\u5370\u304C\u793A\u3057\u3066\u3044\u308B\u5834\u6240\u304C\u81EA\u5206\u306E\u9663\u5730\u3067\u3059"
  - "\u3059\u3070\u3089\u3057\u3044\uFF01"
  - "\u3053\u306E\u30B2\u30FC\u30E0\u306F\u81EA\u9663\u306B\u30B3\u30A4\u30F3\u3092\u96C6\u3081\u308B\u3053\u3068\u304C\u76EE\u7684\u3067\u3059\n3\u3064\u81EA\u9663\u306B\u96C6\u3081\u308B\u3068\u30B9\u30B3\u30A2\u304C\u30A2\u30C3\u30D7\u3057\u59CB\u3081\u307E\u3059"
  - "[TASK]\n\u305D\u308C\u3067\u306F\u30B3\u30A4\u30F3\u3092\u3042\u30682\u3064\u904B\u3073\u307E\u3057\u3087\u3046\n<sprite
    name=\"Button 3\">\u30DC\u30BF\u30F3\u3067\u30B3\u30A4\u30F3\u3092\u3064\u304B\u3080/\u306F\u306A\u3059"
  - "\u30B9\u30B3\u30A2\u304C\u30A2\u30C3\u30D7\u3057\u3066\u3044\u308B\u306E\u304C\u308F\u304B\u308A\u307E\u3059\u304B\uFF1F\n\u3053\u306E\u30B9\u30B3\u30A2\u304C100\u306B\u306A\u3063\u305F\u3089\u3042\u306A\u305F\u306E\u52DD\u5229\u3067\u3059"
  - "\u30B9\u30B3\u30A2\u306F\u30B3\u30A4\u30F3\u30923\u3064\u81EA\u9663\u306B\n\u7F6E\u304D\u7D9A\u3051\u306A\u3044\u3068\u30A2\u30C3\u30D7\u3057\u307E\u305B\u3093"
  - "\u4ED6\u306E\u30D7\u30EC\u30A4\u30E4\u30FC\u306E\u9663\u5730\u306E\u30B3\u30A4\u30F3\u3092\u596A\u3063\u3066\n\u5F97\u70B9\u3092\u963B\u6B62\u3057\u306A\u304C\u3089\n\u81EA\u5206\u306E\u30B9\u30B3\u30A2\u30A2\u30C3\u30D7\u3092\u72D9\u3044\u307E\u3057\u3087\u3046\uFF01"
  - "[TASK]\n\u306A\u304A\u30B3\u30A4\u30F3\u306F\u30D5\u30A3\u30FC\u30EB\u30C9\u306B\u5168\u90E8\u30677\u3064\u3042\u308A\u307E\u3059"
  - "\u6B21\u306B\u30B9\u30AD\u30EB\u306B\u3064\u3044\u3066\u306E\u8AAC\u660E\u306B\u79FB\u308A\u307E\u3059"
  - "\u30AD\u30E3\u30E9\u30AF\u30BF\u30FC\u306F\u305D\u308C\u305E\u308C2\u3064\u306E\u30B9\u30AD\u30EB\u3092\u6301\u3063\u3066\u3044\u307E\u3059"
  - "\u3042\u306A\u305F\u304C\u4ECA\u64CD\u4F5C\u3057\u3066\u3044\u308B\u30AD\u30E3\u30E9\u30AF\u30BF\u30FC\u306F\n\u300C\u30AC\u30A4\u300D\u3068\u3044\u3046\u540D\u524D\u3067\u3059\n\u30B7\u30F3\u30D7\u30EB\u306A\u79FB\u52D5\u30B9\u30AD\u30EB\u3068\u653B\u6483\u30B9\u30AD\u30EB\u304C\u3042\u308A\u307E\u3059"
  - "[TASK]\n\u305D\u308C\u3067\u306F\u5B9F\u969B\u306B\u4F7F\u3063\u3066\u307F\u307E\u3057\u3087\u3046\n<sprite
    name=\"Button 1\">\u30DC\u30BF\u30F3\u3067\u30C0\u30C3\u30B7\u30E5\n\u306A\u304A\u30B9\u30AD\u30EB\u306F\u9023\u7D9A\u3067\u4F7F\u7528\u3067\u304D\u306A\u3044\u3088\u3046\u306B\u306A\u3063\u3066\u3044\u307E\u3059"
  - "\u3067\u304D\u307E\u3057\u305F\u304B\uFF1F\n\u3067\u306F\u5B9F\u969B\u306B\u6575\u30D7\u30EC\u30A4\u30E4\u30FC\u306B\u653B\u6483\u3057\u3066\u307F\u307E\u3057\u3087\u3046"
  - "[TASK]\n\u30C0\u30C3\u30B7\u30E5\u30B9\u30AD\u30EB\u3092\u6575\u30D7\u30EC\u30A4\u30E4\u30FC\u306B\u5F53\u3066\u3066\u307F\u307E\u3057\u3087\u3046\n\u653B\u6483\u3092\u5F53\u3066\u308B\u3068\u76F8\u624B\u306F\u5C11\u3057\u306E\u9593\u52D5\u3051\u306A\u304F\u306A\u308A\u307E\u3059"
  - "\u304A\u898B\u4E8B\uFF01"
  - "\u30AC\u30A4\u306E\u3082\u3046\u4E00\u3064\u306E\u30B9\u30AD\u30EB\u306F\n\u30CF\u30F3\u30DE\u30FC\u653B\u6483\u3067\u3059"
  - "[TASK]\n<sprite name=\"Button 2\">\u30DC\u30BF\u30F3\u62BC\u3057\u3063\u3071\u306A\u3057\u3067\u3067\u30C1\u30E3\u30FC\u30B8\u958B\u59CB\n<sprite
    name=\"Button 2\">\u30DC\u30BF\u30F3\u3092\u306F\u306A\u3059\u3068\u524D\u65B9\u306B\u653B\u6483\n\u3046\u307E\u304F\u6575\u306B\u5F53\u3066\u3066\u307F\u3088\u3046"
  - "\u3059\u3070\u3089\u3057\u3044\uFF01"
  - "\u3053\u306E\u3088\u3046\u306B\u4ED6\u306E\u30AD\u30E3\u30E9\u30AF\u30BF\u30FC\u3082\n\u500B\u6027\u3042\u3075\u308C\u308B\u30B9\u30AD\u30EB\u3092\u6301\u3063\u3066\u3044\u307E\u3059"
  - "\u6700\u5F8C\u306B\u30EC\u30C3\u30C9\u30B3\u30A4\u30F3\u306B\u3064\u3044\u3066\u8AAC\u660E\u3057\u307E\u3059"
  - "\u30EC\u30C3\u30C9\u30B3\u30A4\u30F3\u306F\u30B2\u30FC\u30E0\u4E2D\u306B\u30E9\u30F3\u30C0\u30E0\u306B\u51FA\u73FE\u3059\u308B\n\u5927\u304D\u306A\u8D64\u3044\u30B3\u30A4\u30F3\u306E\u3053\u3068\u3067\u3059"
  - "\u30EC\u30C3\u30C9\u30B3\u30A4\u30F3\u306F\u9663\u5730\u306B\u6301\u3063\u3066\u5E30\u308B\u3068\n\u3069\u3093\u3069\u3093\u5927\u304D\u304F\u306A\u308A\u307E\u3059"
  - "\u6700\u5927\u307E\u3067\u5927\u304D\u304F\u306A\u308B\u3068\u30EC\u30C3\u30C9\u30B3\u30A4\u30F3\u306F\u6D88\u6EC5\u3057\n\u305D\u306E\u9663\u5730\u306E\u30D7\u30EC\u30A4\u30E4\u30FC\u306B30\u70B9\u5165\u308A\u307E\u3059\uFF01"
  - "[TASK]\n\u305D\u308C\u3067\u306F\u30EC\u30C3\u30C9\u30B3\u30A4\u30F3\u3092\u904B\u3093\u3067\u307F\u3066\u304F\u3060\u3055\u3044"
  - "30\u70B9\u5165\u3063\u305F\u306E\u3092\u78BA\u8A8D\u3067\u304D\u307E\u3057\u305F\u304B\uFF1F"
  - "\u30EC\u30C3\u30C9\u30B3\u30A4\u30F3\u306F\u5927\u91CF\u5F97\u70B9\u304C\u72D9\u3048\u307E\u3059\u304C\n\u5F53\u7136\u3069\u306E\u30D7\u30EC\u30A4\u30E4\u30FC\u3082\u72D9\u3046\u306E\u3067\n\u596A\u3044\u5408\u3044\u306B\u306A\u308B\u3067\u3057\u3087\u3046"
  - "\u30EC\u30C3\u30C9\u30B3\u30A4\u30F3\u3092\u4E89\u3046\u304B\n\u666E\u901A\u306E\u30B3\u30A4\u30F3\u3092\u305D\u306E\u9593\u306B\u96C6\u3081\u308B\u304B\n\u305D\u306E\u5224\u65AD\u304C\u91CD\u8981\u306B\u306A\u308A\u307E\u3059"
  - "\u3055\u3066 \u57FA\u672C\u7684\u306A\u30EB\u30FC\u30EB\u3068\u64CD\u4F5C\u65B9\u6CD5\u306E\u8AAC\u660E\u306F\n\u3053\u308C\u3067\u304A\u3057\u307E\u3044\u3067\u3059"
  - "\u4ECA\u3059\u3050\u306B\u3067\u3082\u5BFE\u6226\u3057\u305F\u3044\u4EBA\u306F\u5BFE\u6226\u30E2\u30FC\u30C9\u3092\n\u30AD\u30E3\u30E9\u30AF\u30BF\u30FC\u306E\u64CD\u4F5C\u7DF4\u7FD2\u3092\u3057\u305F\u3044\u4EBA\u306F\n\u30D7\u30E9\u30AF\u30C6\u30A3\u30B9\u30E2\u30FC\u30C9\u3092\u30D7\u30EC\u30A4\u3057\u307E\u3057\u3087\u3046"
  - "\u306A\u304A\u5BFE\u6226\u30E2\u30FC\u30C9\u306B\u306F\u4ECA\u8AAC\u660E\u3057\u305F\u30EB\u30FC\u30EB\u3067\u6226\u3046\n\u30AC\u30C1\u30D0\u30C8\u30EB\u30E2\u30FC\u30C9\u3068"
  - "\u30B3\u30A4\u30F3\u30923\u3064\u96C6\u3081\u305F\u6642\u70B9\u306710\u70B9\u7372\u5F97\u3067\u304D\u308B\n\u96E3\u6613\u5EA6\u4F4E\u3081\u306E\u30AB\u30B8\u30E5\u30A2\u30EB\u30D0\u30C8\u30EB\u30E2\u30FC\u30C9\u304C\u3042\u308A\u307E\u3059"
  - "\u308F\u3044\u308F\u3044\u697D\u3057\u307F\u305F\u3044\u4EBA\u306F\u30AB\u30B8\u30E5\u30A2\u30EB\u30D0\u30C8\u30EB\u30E2\u30FC\u30C9\u3092\n\u30AC\u30C1\u30F3\u30B3\u3067\u6226\u3044\u305F\u3044\u4EBA\u306F\u30AC\u30C1\u30D0\u30C8\u30EB\u30E2\u30FC\u30C9\u3092\n\u30D7\u30EC\u30A4\u3057\u3066\u307F\u3066\u304F\u3060\u3055\u3044\uFF01"
  - "\u305D\u308C\u3067\u306FGoldRush\u306E\u4E16\u754C\u3092\u304A\u697D\u3057\u307F\u304F\u3060\u3055\u3044\uFF01"
