%YAML 1.1
%TAG !u! tag:unity3d.com,2011:
--- !u!114 &11400000
MonoBehaviour:
  m_ObjectHideFlags: 0
  m_PrefabParentObject: {fileID: 0}
  m_PrefabInternal: {fileID: 0}
  m_GameObject: {fileID: 0}
  m_Enabled: 1
  m_EditorHideFlags: 0
  m_Script: {fileID: 11500000, guid: 7f0680430e7a64d4b84dd25c4bbdc79b, type: 3}
  m_Name: Keyboard Mapping
  m_EditorClassIdentifier: 
  keyboardButtonMapping:
  - target: 0
    buttons: 630000006500000020000000
  - target: 1
    buttons: 7a00000071000000
  - target: 2
    buttons: 7800000077000000
  - target: 3
    buttons: 65000000
  - target: 4
    buttons: 7a0000007100000020000000
  - target: 6
    buttons: 7800000077000000
  - target: 9
    buttons: 0d000000
  - target: 5
    buttons: 6500000063000000
  - target: 7
    buttons: 61000000
  - target: 8
    buttons: 64000000
  keyboardAxisMapping:
  - target: 0
    buttonsPositive: 13010000
    buttonsNegative: 14010000
  - target: 1
    buttonsPositive: 11010000
    buttonsNegative: 12010000
